[
{"Date":"31-Mar-17","Sale":9865.73},
{"Date":"30-Mar-17","Sale":9256.48},
{"Date":"29-Mar-17","Sale":9189.22},
{"Date":"28-Mar-17","Sale":9161.48},
{"Date":"27-Mar-17","Sale":9138.83},
{"Date":"26-Mar-17","Sale":8976.69},
{"Date":"25-Mar-17","Sale":8885.73},
{"Date":"24-Mar-17","Sale":8849.56},
{"Date":"23-Mar-17","Sale":8788.14},
{"Date":"22-Mar-17","Sale":8718.87},
{"Date":"21-Mar-17","Sale":8485.52},
{"Date":"20-Mar-17","Sale":8321.42},
{"Date":"19-Mar-17","Sale":8267.45},
{"Date":"18-Mar-17","Sale":7949.52},
{"Date":"17-Mar-17","Sale":7932.45},
{"Date":"16-Mar-17","Sale":7787.13},
{"Date":"15-Mar-17","Sale":7780.66},
{"Date":"14-Mar-17","Sale":7758.54},
{"Date":"13-Mar-17","Sale":7682.57},
{"Date":"12-Mar-17","Sale":7529.15},
{"Date":"11-Mar-17","Sale":7397.56},
{"Date":"10-Mar-17","Sale":7325.91},
{"Date":"9-Mar-17","Sale":7085.20},
{"Date":"8-Mar-17","Sale":7004.70},
{"Date":"7-Mar-17","Sale":6727.81},
{"Date":"6-Mar-17","Sale":6600.62},
{"Date":"5-Mar-17","Sale":6409.82},
{"Date":"4-Mar-17","Sale":6399.98},
{"Date":"3-Mar-17","Sale":6268.88},
{"Date":"2-Mar-17","Sale":6197.39},
{"Date":"1-Mar-17","Sale":6032.22},
{"Date":"28-Feb-17","Sale":5998.58},
{"Date":"27-Feb-17","Sale":5889.43},
{"Date":"26-Feb-17","Sale":5828.05},
{"Date":"25-Feb-17","Sale":5812.68},
{"Date":"24-Feb-17","Sale":5747.86},
{"Date":"23-Feb-17","Sale":5246.38},
{"Date":"22-Feb-17","Sale":5142.64},
{"Date":"21-Feb-17","Sale":5046.26},
{"Date":"20-Feb-17","Sale":4829.87},
{"Date":"19-Feb-17","Sale":4757.81},
{"Date":"18-Feb-17","Sale":4710.40},
{"Date":"17-Feb-17","Sale":4454.11},
{"Date":"16-Feb-17","Sale":4320.48},
{"Date":"15-Feb-17","Sale":4154.79},
{"Date":"14-Feb-17","Sale":4060.17},
{"Date":"13-Feb-17","Sale":4046.41},
{"Date":"12-Feb-17","Sale":4006.52},
{"Date":"11-Feb-17","Sale":3623.14},
{"Date":"10-Feb-17","Sale":3559.02},
{"Date":"9-Feb-17","Sale":3424.57},
{"Date":"8-Feb-17","Sale":3369.88},
{"Date":"7-Feb-17","Sale":3783.96},
{"Date":"6-Feb-17","Sale":3687.05},
{"Date":"5-Feb-17","Sale":2198.06},
{"Date":"4-Feb-17","Sale":4937.77},
{"Date":"3-Feb-17","Sale":2612.36},
{"Date":"2-Feb-17","Sale":2579.92},
{"Date":"1-Feb-17","Sale":4060.17},
{"Date":"31-Jan-17","Sale":4046.41},
{"Date":"30-Jan-17","Sale":4006.52},
{"Date":"29-Jan-17","Sale":3855.92},
{"Date":"28-Jan-17","Sale":3783.96},
{"Date":"27-Jan-17","Sale":3687.05},
{"Date":"26-Jan-17","Sale":5046.26},
{"Date":"25-Jan-17","Sale":4829.87},
{"Date":"24-Jan-17","Sale":4757.81},
{"Date":"23-Jan-17","Sale":4710.40},
{"Date":"22-Jan-17","Sale":4454.11},
{"Date":"21-Jan-17","Sale":4320.48},
{"Date":"20-Jan-17","Sale":4154.79},
{"Date":"19-Jan-17","Sale":4060.17},
{"Date":"18-Jan-17","Sale":4046.41}
]