{
    "userId":835,
    "token":123456,
    "linkedAccount":[
       {
          "userId":835,
          "type":"WH",
          "accountLib":"1010",
          "accountId":"23",
          "rules":[
 
          ]
       },
       {
          "userId":835,
          "type":"CM",
          "accountLib":"1010",
          "accountId":"003000",
          "rules":[
          	 {
                "ruleType":"CM",
                "ruleId":"1010-003000",
                "name":"Test",
                "value":"Bad",
                "doubleValue":0
             },
             {
                "ruleType":"CM",
                "ruleId":"1010-003000",
                "name":"NAME",
                "value":"WALLIS LUBRICANT LLC",
                "doubleValue":0
             },
             {
                "ruleType":"CM",
                "ruleId":"1010-003000",
                "name":"DISTRIBUTOR",
                "value":"TRUE",
                "doubleValue":0
             }
          ]
       }
    ],
    "roleList":[
       {
          "userId":835,
          "name":"CM_ADMIN"
       },
       {
          "userId":835,
          "name":"CM_CMS"
       },
       {
          "userId":835,
          "name":"CM_CREATE_INTL_ORDER"
       },
       {
          "userId":835,
          "name":"CM_CREATE_ORDER"
       },
       {
          "userId":835,
          "name":"CM_CREATE_ORDER_4_OTHER"
       },
       {
          "userId":835,
          "name":"CM_TRIP"
       },
       {
          "userId":835,
          "name":"CM_USER"
       },
       {
          "userId":835,
          "name":"NO_DIST_EMAIL"
       },
       {
          "userId":835,
          "name":"SYS_ADMIN"
       }
    ],
    "authDetail":{
       "failedAuthenticationCount":0,
       "lastAuthenticationDate":"2019-01-24T09:49:06.733Z",
       "addedTs":"2008-07-03T13:33:20.000Z",
       "lastChangeUser":"RHEALEY@OWI.COM",
       "lastChangeTs":"2019-01-24T09:49:06.733Z",
       "active":"A",
       "lastDeactivatedTs":"2012-10-10T10:42:00.000Z",
       "passwordExpired":false,
       "lastPasswordChangeTs":"2012-12-16T05:46:00.000Z"
    },
    "name":{
       "firstName":"Russel",
       "lastName":"Healey",
       "middleName":"",
       "title":"Developer Extrordinaire"
    },
    "address":{
       "name":"Russ Healey",
       "street1":"4065 Commercial Ave.",
       "street3":"",
       "city":"Northbrook",
       "state":"IL",
       "zip":"60062",
       "county":"",
       "countyCode":""
    },
    "communication":{
       "phone":"847-559-2241",
       "fax":"847-664-7241",
       "pager":"847-559-2241",
       "emailAddress":{
          "address":"RHEALEY@OWI.COM"
       }
    }
 }