{
	"ProductCollection": [
		{
			"ProductId": "880-BP",
			"Category": "800 Series",
			"MainCategory": "Forward Lighting",
			"Shape": "T-3 1/4",
			"Volts": "12.8",
			"Watts": "27",
			"Amps": "2.11",
			"CP": "45",
			"AvgLife": "500",
			"Base": "Axial Prefocus (PG13)",
			"MOL": "2.68/68.1",
			"MOD": "0.42/10.7",
			"LCL": "",
			"Filament": "C-6",

			"SupplierName": "OldWorld Automotive",
			"WeightMeasure": 4.2,
			"WeightUnit": "LB",
			"Description": "Automotive, Fog, Shielded - detailed description here",
			"Name": "Automotive, Fog, Shielded",
			"DateOfSale": "2017-03-26",
			"ProductPicUrl": "http://ui5.devlocal.com/peakLighting/mockdata/lighting_test_1.png",
			"Status": "Available",
			"Quantity": 10,
			"UoM": "PC",
			"CurrencyCode": "US",
			"Price": 1.99,
			"Width": 30,
			"Depth": 18,
			"Height": 3,
			"DimUnit": "in"
		},
		{
			"ProductId": "9003",
			"Category": "9000 Series",
			"MainCategory": "Forward Lighting",
			"Shape": "T-5",
			"Volts": "12.8/12.8",
			"Watts": "60",
			"Amps": "4.69/4.30",
			"CP": "123/76",
			"AvgLife": "250/800",
			"Base": "Axial Prefocus, HB2 (P43t38)",
			"MOL": "3.62/92.0",
			"MOD": "0.65/16.5",
			"LCL": "",
			"Filament": "C-8/C-8",

			"SupplierName": "OldWorld Automotive",
			"WeightMeasure": 4.5,
			"WeightUnit": "LB",
			"Description": "Automotive, Headlight, HB2 - detailed description here",
			"Name": "Automotive, Headlight, HB2",
			"DateOfSale": "2017-04-17",
			"ProductPicUrl": "http://ui5.devlocal.com/peakLighting/mockdata/lighting_test_2.png",
			"Status": "Available",
			"Quantity": 20,
			"UoM": "PC",
			"CurrencyCode": "US",
			"Price": 2.99,
			"Width": 29,
			"Depth": 17,
			"Height": 3.1,
			"DimUnit": "in"
		}
	],

	"ProductCollectionStats": {
		"Counts": {
			"Total": 123,
			"Weight": {
				"Ok": 53,
				"Heavy": 51,
				"Overweight": 19
			}
		},
		"Groups": {
			"Category": {
				"Accessories" : 34,
				"Desktop Computers" : 7,
				"Flat Screens" : 2,
				"Keyboards" : 4,
				"Laptops" : 11,
				"Printers" : 9,
				"Smartphones and Tablets" : 9,
				"Mice" : 7,
				"Computer System Accessories" : 8,
				"Graphics Card" : 4,
				"Scanners" : 4,
				"Speakers" : 3,
				"Software" : 8,
				"Telekommunikation" : 3,
				"Servers" : 3,
				"Flat Screen TVs" : 3
			},
			"SupplierName": {
				"Titanium": 21,
				"Technocom": 22,
				"Red Point Stores": 7,
				"Very Best Screens": 14,
				"Smartcards": 2,
				"Alpha Printers": 5,
				"Printer for All": 8,
				"Oxynum": 8,
				"Fasttech": 15,
				"Ultrasonic United": 15,
				"Speaker Experts": 3,
				"Brainsoft": 3
			}
		},
		"Filters": [
			{
				"type": "Category",
				"values": [
					{
						"text": "Accessories",
						"data": 34
					},
					{
						"text": "Desktop Computers",
						"data": 7
					},
					{
						"text": "Flat Screens",
						"data": 2
					},
					{
						"text": "Keyboards",
						"data": 4
					},
					{
						"text": "Laptops",
						"data": 11
					},
					{
						"text": "Printers",
						"data": 9
					},
					{
						"text": "Smartphones and Tablets",
						"data": 9
					},
					{
						"text": "Mice",
						"data": 7
					},
					{
						"text": "Computer System Accessories",
						"data": 8
					},
					{
						"text": "Graphics Card",
						"data": 4
					},
					{
						"text": "Scanners",
						"data": 4
					},
					{
						"text": "Speakers",
						"data": 3
					},
					{
						"text": "Software",
						"data": 8
					},
					{
						"text": "Telekommunikation",
						"data": 3
					},
					{
						"text": "Servers",
						"data": 3
					},
					{
					  "text": "Flat Screen TVs",
					  "data": 3
					}
				]
			},
			{
				"type": "SupplierName",
				"values": [
					{
					"text": "Titanium",
					"data": 21
				  },
				  {
					"text": "Technocom",
					"data": 22
				  },
				  {
					"text": "Red Point Stores",
					"data": 7
				  },
				  {
					"text": "Very Best Screens",
					"data": 14
				  },
				  {
					"text": "Smartcards",
					"data": 2
				  },
				  {
					"text": "Alpha Printers",
					"data": 5
				  },
				  {
					"text": "Printer for All",
					"data": 8
				  },
				  {
					"text": "Oxynum",
					"data": 8
				  },
				  {
					"text": "Fasttech",
					"data": 15
				  },
				  {
					"text": "Ultrasonic United",
					"data": 15
				  },
				  {
					"text": "Speaker Experts",
					"data": 3
				  },
				  {
					"text": "Brainsoft",
					"data": 3
				  }
				]
			}
		]
	}
}
