[
    {
        "__metadata": {
            "id": "http://owdevs401.oldworldind.com:8000/sap/opu/odata/sap/ZP_OTC_I0246_OPEN_ORDERS_SRV/GetDelHeadSet(IvDelivery='5000002315',IvWerks='2029')",
            "uri": "http://owdevs401.oldworldind.com:8000/sap/opu/odata/sap/ZP_OTC_I0246_OPEN_ORDERS_SRV/GetDelHeadSet(IvDelivery='5000002315',IvWerks='2029')",
            "type": "ZP_OTC_I0246_OPEN_ORDERS_SRV.GetDelHead"
        },
        "IvDelivery": "5000002315",
        "Vbeln": "5000002315",
        "Erdat": "\/Date(1510617600000)\/",
        "Inco1": "PPD",
        "VbakVdatu": "\/Date(1504828800000)\/",
        "ShipDate": "\/Date(1520035200000)\/",
        "BstkdE": "",
        "Knref": "",
        "ShipName1": "WAL-MART GLOBAL RETAIL CORPORATION",
        "ShipCity1": "BENTONVILLE",
        "ShipPostCode1": "72716-6209",
        "ShipCountry": "US",
        "ShipRegion": "AR",
        "BillName1": "BRENNTAG MID-SOUTH ATLANTIC SERVICE",
        "BillCity1": "CHARLOTTE",
        "BillPostCode1": "28273-5514",
        "BillCountry": "US",
        "BillRegion": "NC",
        "ProTracking": "1Z0000001987234561",
        "BillOfLadingImage": "",
        "CoaImage": "",
        "Status": "Z",
        "BarcodeReq": "X",
        "ShipPalletReady": "X",
        "ShipperToCons": "",
        "PallManifestReq": "X",
        "ShipVia": "51-Standard",
        "CustPackStyleid": "689800",
        "CustShipmaniStyleid": "765000",
        "SchedPickDate": null,
        "SchedDelDate": null,
        "DeliveryCode": "CD",
        "ShipmentId": "",
        "Ccr": "",
        "ShipWith": "",
        "IvWerks": "2029",
        "Bolnr": "",
        "OrderType": "ZOR",
        "NavDelHeadtoItem": {
            "results": [{
                    "__metadata": {
                        "id": "http://owdevs401.oldworldind.com:8000/sap/opu/odata/sap/ZP_OTC_I0246_OPEN_ORDERS_SRV/GetDelItemSet(IvDelivery='5000002315',IvWerks='2029')",
                        "uri": "http://owdevs401.oldworldind.com:8000/sap/opu/odata/sap/ZP_OTC_I0246_OPEN_ORDERS_SRV/GetDelItemSet(IvDelivery='5000002315',IvWerks='2029')",
                        "type": "ZP_OTC_I0246_OPEN_ORDERS_SRV.GetDelItem"
                    },
                    "IvDelivery": "5000002315",
                    "Vbeln": "5000002315",
                    "Posnr": "000010",
                    "Matnr": "4000006",
                    "Arktx": "DEF 55GAL DRUM - Cust1-Test-CFM1",
                    "Vrkme": "DR",
                    "Kwmeng": "100000.000",
                    "IvWerks": "2029"
                }]
        }
    }

]