{
	"DataCollection": [
		{
			"BillTo#": "282900",
			"ShipTo#": "283342",
			"Name": "[mocked] FIRST STUDENT - 27013",
			"Street1": "8020 MONTICELLO TER",
			"Street2": "",
			"Street3": "",
			"City": "SHAWNEE",
			"ST": "KS",
			"Zip": "66227-2646",
			"Country": "US",
			"Account Manager": "Nicholas Leazer",
			"Phone": "847-559-2018",
			"Email": "nationalaccounts@owi.com"
		},
		{
			"BillTo#": "076700",
			"ShipTo#": "076852",
			"Name": "[mocked] R&L - MEMPHIS",
			"Street1": "11305 GULF STREAM RD",
			"Street2": "",
			"Street3": "",
			"City": "ARLINGTON",
			"ST": "KY",
			"Zip": "38002-9489",
			"Country": "US",
			"Account Manager": "Migdalia Martinez",
			"Phone": "847-559-2017",
			"Email": "nationalaccounts@owi.com"
		}
	],

	"Columns": [{
		"label": "Bill-To",
		"property": "BillTo#"
	}, {
		"label": "Ship-To",
		"property": "ShipTo#"
	}, {
		"label": "Name",
		"property": "Name",
		"width": 30
	}, {
		"label": "Street1",
		"property": "Street1",
		"width": 30
	}, {
		"label": "Street2",
		"property": "Street2"
	}, {
		"label": "Street3",
		"property": "Street3"
	}, {
		"label": "City",
		"property": "City",
		"width": 20
	}, {
		"label": "ST",
		"property": "ST"
	}, {
		"label": "Country",
		"property": "Country"
	}, {
		"label": "Account Manager",
		"property": "Account Manager",
		"width": 20
	}, {
		"label": "Phone",
		"property": "Phone",
		"width": 15
	}, {
		"label": "Email",
		"property": "Email",
		"width": 30
	}]
}
